<svg width="52" height="50" viewBox="0 0 52 50" fill="none" xmlns="http://www.w3.org/2000/svg">
<g clip-path="url(#clip0)">
<path d="M41.4307 44.974H33.9504C39.4891 42.7329 43.2841 38.2043 43.2841 32.9964C43.2841 32.5524 42.9221 32.1941 42.4736 32.1941H9.67415C9.22566 32.1941 8.86362 32.5524 8.86362 32.9964C8.86362 38.2043 12.6587 42.7329 18.1973 44.974H10.717C9.54807 44.974 8.59705 45.9153 8.59705 47.0725V47.9033C8.59705 49.0604 9.54807 50.0018 10.717 50.0018H41.4307C42.5997 50.0018 43.5507 49.0604 43.5507 47.9033V47.0725C43.5507 45.9153 42.5997 44.974 41.4307 44.974ZM13.7106 40.2136L38.5777 40.0745C37.8392 40.8287 36.9854 41.5133 36.0362 42.116H16.1116C15.2218 41.5508 14.4167 40.9143 13.7106 40.2136ZM34.7898 42.8291C32.2988 44.1128 29.2998 44.867 26.0739 44.867C22.848 44.867 19.8472 44.1146 17.358 42.8291H34.7898ZM39.2243 39.3578L13.0442 39.504C12.3723 38.7267 11.8176 37.8851 11.3979 36.9937H40.7499C40.3554 37.8298 39.8421 38.6215 39.2243 39.3578ZM41.6271 33.7987C41.5514 34.6545 41.3533 35.4853 41.0507 36.2823H11.0971C10.7945 35.4853 10.5964 34.6545 10.5207 33.7987H41.6271ZM41.9296 47.9033C41.9296 48.1761 41.7063 48.3972 41.4307 48.3972H10.717C10.4415 48.3972 10.2181 48.1761 10.2181 47.9033V47.0725C10.2181 46.7997 10.4415 46.5786 10.717 46.5786H41.4307C41.7063 46.5786 41.9296 46.7997 41.9296 47.0725V47.9033Z" fill="white"/>
<path d="M51.1012 29.468L51.0184 29.5019L51.0994 29.4644C50.777 28.778 50.7068 28.5783 51.0544 28.1023L52 26.8043L50.6599 27.086C50.5609 27.1074 50.4834 27.1181 50.4204 27.127C50.2817 27.1466 50.1502 27.1662 50.0205 27.2768C49.5738 27.6583 49.3036 28.1219 49.2208 28.6585C49.1019 29.4234 49.3757 30.1348 49.6603 30.7321C49.8818 31.1956 49.844 31.3828 49.6873 31.6021C49.5792 31.7519 49.5468 31.7733 49.1721 31.5504L49.0695 31.4898C40.3031 26.4263 33.4821 20.1576 28.219 12.3217C27.5202 11.2805 27.4914 10.7902 28.0768 9.93617C28.1236 9.86842 28.1758 9.79889 28.2317 9.72579C28.5559 9.29611 29.0998 8.57581 28.7648 7.55063C28.3055 6.15283 27.83 4.74968 27.3257 3.2663L27.2716 3.10405C27.0753 2.52282 26.8718 1.92555 26.661 1.30509L26.2179 0L25.8289 1.33184C25.6668 1.88454 25.5281 2.40158 25.393 2.90436C25.1138 3.94024 24.8725 4.83526 24.5374 5.67323C23.7737 7.58094 23.9521 9.21944 25.085 10.685C25.2975 10.9596 25.3696 11.0523 25.0328 11.5818C22.5579 15.4739 19.6653 18.9755 16.1872 22.2846C12.3345 25.9521 8.13232 29.0686 3.69962 31.5451C3.65639 31.57 3.61136 31.595 3.56093 31.6271C3.24572 31.8161 3.23131 31.7965 3.15026 31.6931C2.98275 31.4791 2.96114 31.299 3.0638 31.0013C3.10523 30.8836 3.16287 30.7588 3.22231 30.6269C3.29615 30.4646 3.37361 30.2988 3.43845 30.1063C3.64738 29.4912 3.6762 28.9349 3.5249 28.4517C3.35019 27.8901 2.95933 27.4907 2.33433 27.2304L0 26.2587L1.92006 28.2788C2.17762 28.548 2.16141 28.5801 1.91105 29.0989C1.87142 29.1809 1.8318 29.2629 1.79577 29.345C1.531 29.9387 1.3761 30.4397 1.30405 30.9193C1.14915 31.9605 1.48057 32.909 2.23886 33.5936C2.55047 33.8736 2.88549 34.0162 3.23491 34.0162C3.60236 34.0162 3.91756 33.8611 4.1247 33.7452C13.3575 28.5034 20.5298 21.8692 26.054 13.4592C26.2666 13.1347 26.3638 13.026 26.4035 12.9903C26.4449 13.0242 26.544 13.124 26.7331 13.4129C32.2123 21.8068 39.417 28.4517 48.7579 33.7274C49.5144 34.1553 50.1916 34.0126 50.8274 33.2905C51.683 32.3189 51.8145 31.0334 51.1967 29.6694C51.1642 29.6017 51.1336 29.5339 51.1012 29.468ZM26.344 5.96028C26.5746 6.60212 26.7907 7.21366 26.9582 7.82342C27.0483 8.15148 26.9258 8.37434 26.58 8.88425C26.5187 8.97518 26.4539 9.06789 26.3927 9.16595C26.3332 9.06789 26.2738 8.97518 26.2197 8.8896C25.8523 8.31194 25.7244 8.05698 25.8397 7.65048C25.9964 7.10134 26.1657 6.54329 26.344 5.96028Z" fill="white"/>
<path d="M28.6099 29.4501C28.6099 29.7461 28.8513 29.985 29.1503 29.985H37.9436C38.1832 29.985 38.3921 29.8299 38.4606 29.6034C38.529 29.377 38.439 29.1328 38.239 29.0026C29.5736 23.3686 26.9781 17.7596 26.9529 17.7043C26.8682 17.5135 26.6791 17.3905 26.4701 17.3852C26.2666 17.3834 26.0667 17.4975 25.9748 17.6829C22.5814 24.4954 15.0399 28.8582 14.9642 28.901C14.7517 29.0222 14.649 29.2683 14.7121 29.5036C14.7751 29.739 14.9894 29.8994 15.2344 29.8994H22.8606C23.1596 29.8994 23.4009 29.6605 23.4009 29.3645C23.4009 29.0686 23.1596 28.8297 22.8606 28.8297H17.0734C19.4059 27.2375 23.7846 23.8197 26.4629 19.0647C27.4896 20.8066 30.2598 24.7504 36.1929 28.9135H29.1503C28.8513 28.9152 28.6099 29.1559 28.6099 29.4501Z" fill="white"/>
</g>
<defs>
<clipPath id="clip0">
<rect width="52" height="50" fill="white"/>
</clipPath>
</defs>
</svg>
